dal 2020-10-23 a 2021-02-06 09:29                                Heim Welle2 attesoSemplice eccessoSemplice eccesso95   proba
Bolzano, Don Bosco                                 Bolzano, Don Bosco     33          4.077              28        25 0.00000
Meran, Villa Eden                                   Meran, Villa Eden     20          3.737              16        13 0.00000
Ritten                                                         Ritten     20          4.077              15        12 0.00000
Mals, Martinsheim                                   Mals, Martinsheim     18          4.756              13         9 0.00000
Schluderns                                                 Schluderns     15          2.718              12         9 0.00000
Klausen, Haus Eiseck                             Klausen, Haus Eiseck     10          2.378               7         4 0.00168
Laas, St. Sisinius                                 Laas, St. Sisinius      9          2.378               6         3 0.00550
Lana, Lorenzerhof                                   Lana, Lorenzerhof     11          4.756               6         2 0.00979

Bolzano, Firmian                                     Bolzano, Firmian     18         10.532               7         2 0.02244
Kaltern                                                       Kaltern     11          5.436               5         1 0.02347
St. Pankraz                                               St. Pankraz      7          1.359               5         1 0.04341
Sterzing, Bezirksaltenheim Wipptal Sterzing, Bezirksaltenheim Wipptal      9          4.077               4         1 0.02374
Bolzano, Villa Europa                           Bolzano, Villa Europa      7          2.378               4         1 0.04341

Sarnthein, Sarner Stiftung                 Sarnthein, Sarner Stiftung      9          4.756               4         0 0.05335
Meran, Martinsbrunn                               Meran, Martinsbrunn     11          6.455               4         0 0.06437
Dorf Tirol                                                 Dorf Tirol      6          1.019               4         0 0.10314
St. Ulrich, San Durich                         St. Ulrich, San Durich      8          4.077               3         0 0.05585
Algund                                                         Algund      6          2.718               3         0 0.10314
INSIEME                                                  INSIEME (18)    228         71.686             156       142 0.55329

0 bis 2 sind vielleicht "Fehlalarme"




