dal 2020-10-23 a 2021-06-20 03:11  Welle2 attesoSemplice eccessoSemplice eccesso95   proba
Bolzano, Don Bosco                     35            9.2              25        21 0.00000
Mals, Martinsheim                      25           10.8              14         9 0.00015
Ritten                                 22            9.2              12         8 0.00025
Schluderns                             18            6.2              11         6 0.00050
Meran, Villa Eden                      20            8.5              11         7 0.00051
Tisens, St. Josef                      14            3.8              10         2 0.01590
Sterzing, Bezirksaltenheim Wipptal     18            9.2               8         4 0.00680
Bolzano, Firmian                       32           23.8               8         0 0.06354
Lana, Lorenzerhof                      18           10.8               7         2 0.02705
Schlanders, St. Nikolaus v.d. Flüe     19           12.3               6         1 0.04590
Klausen, Haus Eiseck                   12            5.4               6         0 0.06291
Laas, St. Sisinius                     12            5.4               6         0 0.06291
Niederdorf, Von-Kurz                   13            8.5               4         0 0.08861
INSIEME (13)                          258          123.1             134       116 0.37501


0 bis 1 sind "Fehlalarme"


