dal 2020-10-23 a 2021-04-14 16:33                                Heim Welle2 attesoSemplice eccessoSemplice eccesso95   proba
Bolzano, Don Bosco                                   Bolzano, Don Bosco     34          6.654              27        23 0.00000
Ritten                                                           Ritten     21          6.654              14        10 0.00001
Meran, Villa Eden                                     Meran, Villa Eden     20          6.099              13        10 0.00001
Mals, Martinsheim                                     Mals, Martinsheim     20          7.763              12         7 0.00017
Schluderns                                                   Schluderns     16          4.436              11         7 0.00011

Klausen, Haus Eiseck                               Klausen, Haus Eiseck     11          3.881               7         2 0.01748
Schlanders, St. Nikolaus v.d. Flüe   Schlanders, St. Nikolaus v.d. Flüe     16          8.872               7         2 0.01965
St. Pankraz                                                 St. Pankraz     10          2.218               7         1 0.03925
Bolzano, Villa Europa                             Bolzano, Villa Europa     10          3.881               6         1 0.03925
Laas, St. Sisinius                                   Laas, St. Sisinius     10          3.881               6         1 0.03925
Brixen, Bürgerheim                                   Brixen, Bürgerheim     17         10.535               6         1 0.04063
Sterzing, Bezirksaltenheim Wipptal   Sterzing, Bezirksaltenheim Wipptal     12          6.654               5         1 0.03922

Bolzano, Firmian                                       Bolzano, Firmian     24         17.189               6         0 0.06955
Lana, Lorenzerhof                                     Lana, Lorenzerhof     13          7.763               5         0 0.05305
Kaltern                                                         Kaltern     14          8.872               5         0 0.06758
Meran, Martinsbrunn                                 Meran, Martinsbrunn     16         10.535               5         0 0.06989
St. Martin i. T., Ojöp Frëinademetz St. Martin i. T., Ojöp Frëinademetz     15          9.981               5         0 0.08246
INSIEME                                                    INSIEME (17)    279        125.869             153       134 0.57756

0 oder 2 sind vielleicht "Fehlalarme"


