dal 2020-10-23 a 2021-04-30 18:51                                Heim Welle2 attesoSemplice eccessoSemplice eccesso95   proba
Bolzano, Don Bosco                                 Bolzano, Don Bosco     34          7.269              26        22 0.00000
Mals, Martinsheim                                   Mals, Martinsheim     23          8.481              14         9 0.00003
Meran, Villa Eden                                   Meran, Villa Eden     20          6.663              13         9 0.00002
Ritten                                                         Ritten     21          7.269              13         9 0.00002
Schluderns                                                 Schluderns     16          4.846              11         6 0.00028

Klausen, Haus Eiseck                             Klausen, Haus Eiseck     12          4.240               7         2 0.01363
Laas, St. Sisinius                                 Laas, St. Sisinius     12          4.240               7         2 0.01363
Schlanders, St. Nikolaus v.d. Flüe Schlanders, St. Nikolaus v.d. Flüe     17          9.692               7         2 0.02096
Sterzing, Bezirksaltenheim Wipptal Sterzing, Bezirksaltenheim Wipptal     13          7.269               5         1 0.03480

St. Pankraz                                               St. Pankraz     10          2.423               7         0 0.06308
Bolzano, Firmian                                     Bolzano, Firmian     26         18.779               7         0 0.06595
Partschins                                                 Partschins     10          3.029               6         0 0.06308
Taufers, Stiftung St. Josef               Taufers, Stiftung St. Josef     16         10.298               5         0 0.05987
Bolzano, Villa Europa                           Bolzano, Villa Europa     10          4.240               5         0 0.06308
Brixen, Bürgerheim                                 Brixen, Bürgerheim     17         11.510               5         0 0.07684
Meran, Martinsbrunn                               Meran, Martinsbrunn     17         11.510               5         0 0.07684
INSIEME                                                  INSIEME (16)    274        121.760             152       134 0.55209

0 oder 2 sind vielleicht "Fehlalarme"

Lorenzerhof (Lana) ist aus der Liste genommen worden.


