dal 2020-10-23 a 2021-06-14 07:16  Welle2 attesoSemplice eccessoSemplice eccesso95   proba
Bolzano, Don Bosco                     34           9.00              25        20 0.00000
Mals, Martinsheim                      25          10.50              14         9 0.00010
Ritten                                 22           9.00              13         8 0.00017
Schluderns                             18           6.00              12         6 0.00037
Meran, Villa Eden                      20           8.25              11         7 0.00037

Tisens, St. Josef                      13           3.75               9         1 0.02753
Lana, Lorenzerhof                      18          10.50               7         2 0.02186
Sterzing, Bezirksaltenheim Wipptal     16           9.00               7         2 0.02204
Schlanders, St. Nikolaus v.d. Flüe     19          12.00               7         1 0.03742

Klausen, Haus Eiseck                   12           5.25               6         0 0.05426
Laas, St. Sisinius                     12           5.25               6         0 0.05426
Niederdorf, Von-Kurz                   13           8.25               4         0 0.07659
INSIEME (12)                          222          96.75             125       109 0.29497


0 bis 1 sind "Fehlalarme"


