dal 2020-10-23 a 2021-05-17 15:16                                Heim Welle2 attesoSemplice eccessoSemplice eccesso95   proba
Bolzano, Don Bosco                                 Bolzano, Don Bosco     34          7.923              26        21 0.00000
Mals, Martinsheim                                   Mals, Martinsheim     25          9.244              15        11 0.00001
Ritten                                                         Ritten     22          7.923              14         9 0.00003
Meran, Villa Eden                                   Meran, Villa Eden     20          7.263              12         8 0.00007
Schluderns                                                 Schluderns     16          5.282              10         5 0.00069

Bolzano, Firmian                                     Bolzano, Firmian     29         20.468               8         1 0.04365
Sterzing, Bezirksaltenheim Wipptal Sterzing, Bezirksaltenheim Wipptal     15          7.923               7         2 0.01599
Klausen, Haus Eiseck                             Klausen, Haus Eiseck     12          4.622               7         1 0.02446
Laas, St. Sisinius                                 Laas, St. Sisinius     12          4.622               7         1 0.02446
Schlanders, St. Nikolaus v.d. Flüe Schlanders, St. Nikolaus v.d. Flüe     17         10.564               6         1 0.04148

Partschins                                                 Partschins     11          3.301               7         0 0.05051
Tisens, St. Josef                                   Tisens, St. Josef     11          3.301               7         0 0.05051
Kaltern                                                       Kaltern     16         10.564               5         0 0.07118
Niederdorf, Von-Kurz                             Niederdorf, Von-Kurz     12          7.263               4         0 0.06613
Lana, Lorenzerhof                                   Lana, Lorenzerhof     14          9.244               4         0 0.08679
INSIEME                                                  INSIEME (15)    266        119.506             146       128 0.47596


0 bis 2 sind "Fehlalarme"

Villa Europa di Bolzano und St. Pankraz sind nicht mehr aufgelistet.
