dal 2020-10-23 a 2021-04-20 11:42                                Heim Welle2 attesoSemplice eccessoSemplice eccesso95   proba
Bolzano, Don Bosco                                 Bolzano, Don Bosco     34          6.962              27        22 0.00000
Ritten                                                         Ritten     21          6.962              14         9 0.00001
Meran, Villa Eden                                   Meran, Villa Eden     20          6.381              13         9 0.00001
Mals, Martinsheim                                   Mals, Martinsheim     21          8.122              12         8 0.00012
Schluderns                                                 Schluderns     16          4.641              11         6 0.00017

Schlanders, St. Nikolaus v.d. Flüe Schlanders, St. Nikolaus v.d. Flüe     17          9.282               7         2 0.01454
Klausen, Haus Eiseck                             Klausen, Haus Eiseck     11          4.061               6         1 0.02331
Laas, St. Sisinius                                 Laas, St. Sisinius     11          4.061               6         1 0.02331
Sterzing, Bezirksaltenheim Wipptal Sterzing, Bezirksaltenheim Wipptal     13          6.962               6         1 0.02600
Taufers, Stiftung St. Josef               Taufers, Stiftung St. Josef     16          9.862               6         1 0.04412

St. Pankraz                                               St. Pankraz     10          2.321               7         0 0.05023
Bolzano, Firmian                                     Bolzano, Firmian     25         17.984               7         0 0.06774
Bolzano, Villa Europa                           Bolzano, Villa Europa     10          4.061               5         0 0.05023
Brixen, Bürgerheim                                 Brixen, Bürgerheim     17         11.022               5         0 0.05675
Lana, Lorenzerhof                                   Lana, Lorenzerhof     13          8.122               4         0 0.06984
INSIEME                                                  INSIEME (15)    255        110.804             144       127 0.42638

0 oder 1 sind vielleicht "Fehlalarme"

Kaltern ist aus der Liste gefallen.
