dal 2020-10-23 a 2021-01-22 21:07                                Heim Welle2 attesoSemplice eccessoSemplice eccesso95   proba
Bolzano, Don Bosco                                 Bolzano, Don Bosco     32          3.500              28        25 0.00000
Ritten                                                         Ritten     20          3.500              16        13 0.00000
Meran, Villa Eden                                   Meran, Villa Eden     19          3.208              15        13 0.00000
Mals, Martinsheim                                   Mals, Martinsheim     17          4.083              12         9 0.00000
Schluderns                                                 Schluderns     14          2.333              11         8 0.00000
Klausen, Haus Eiseck                             Klausen, Haus Eiseck     10          2.042               7         4 0.00055
Lana, Lorenzerhof                                   Lana, Lorenzerhof     11          4.083               6         3 0.00331
Sterzing, Bezirksaltenheim Wipptal Sterzing, Bezirksaltenheim Wipptal      9          3.500               5         2 0.00987
Kaltern                                                       Kaltern     10          4.667               5         2 0.02129
St. Pankraz                                               St. Pankraz      7          1.167               5         1 0.02167
Meran, Martinsbrunn                               Meran, Martinsbrunn     11          5.542               5         1 0.02646
Bolzano, Villa Europa                           Bolzano, Villa Europa      7          2.042               4         1 0.02167
St. Ulrich, San Durich                         St. Ulrich, San Durich      8          3.500               4         1 0.02674

Dorf Tirol                                                 Dorf Tirol      6          0.875               5         0 0.05917
Sarnthein, Sarner Stiftung                 Sarnthein, Sarner Stiftung      8          4.083               3         0 0.05625
Algund                                                         Algund      6          2.333               3         0 0.05917
Laas, St. Sisinius                                 Laas, St. Sisinius      6          2.042               3         0 0.05917
INSIEME                                                  INSIEME (17)    201         52.500             148       136 0.36533

0 bis 1 sind vielleicht "Fehlalarme"



