dal 2020-10-23 a 2021-06-05 19:41  Welle2 attesoSemplice eccessoSemplice eccesso95   proba
Bolzano, Don Bosco                     34          8.654              25        20 0.00000
Mals, Martinsheim                      25         10.096              14         9 0.00005
Ritten                                 22          8.654              13         8 0.00010
Meran, Villa Eden                      20          7.933              12         7 0.00023
Schluderns                             18          5.769              12         7 0.00024

Tisens, St. Josef                      13          3.606               9         2 0.02098
Sterzing, Bezirksaltenheim Wipptal     15          8.654               6         1 0.03130
Klausen, Haus Eiseck                   12          5.048               6         1 0.04285
Laas, St. Sisinius                     12          5.048               6         1 0.04285
Schlanders, St. Nikolaus v.d. Flüe     18         11.538               6         1 0.04694

Partschins                             11          3.606               7         0 0.08173
Brixen, Bürgerheim                     20         13.702               6         0 0.06497
Lana, Lorenzerhof                      16         10.096               5         0 0.05216
Niederdorf, Von-Kurz                   13          7.933               5         0 0.06061
INSIEME (14)                          249        110.337             138       121 0.44502


0 bis 2 sind "Fehlalarme"


