dal 2020-10-23 a 2020-12-29 20:10                                Heim Welle2 attesoSemplice eccessoSemplice eccesso95   proba
Bolzano, Don Bosco                                 Bolzano, Don Bosco     30          2.577              27        25 0.00000
Ritten                                                         Ritten     18          2.577              15        13 0.00000
Meran, Villa Eden                                   Meran, Villa Eden     17          2.362              14        12 0.00000
Schluderns                                                 Schluderns     14          1.718              12         9 0.00000
Mals, Martinsheim                                   Mals, Martinsheim     16          3.006              12        10 0.00000
Klausen, Haus Eiseck                             Klausen, Haus Eiseck      9          1.503               7         4 0.00025
St. Ulrich, San Durich                         St. Ulrich, San Durich      8          2.577               5         3 0.00507
Sterzing, Bezirksaltenheim Wipptal Sterzing, Bezirksaltenheim Wipptal      8          2.577               5         3 0.00507
Kaltern                                                       Kaltern      9          3.436               5         2 0.00884
Lana, Lorenzerhof                                   Lana, Lorenzerhof      8          3.006               4         2 0.01204
Sarnthein, Sarner Stiftung                 Sarnthein, Sarner Stiftung      8          3.006               4         2 0.01204
Bolzano, Villa Europa                           Bolzano, Villa Europa      6          1.503               4         1 0.01693

Brixen, Bürgerheim                                 Brixen, Bürgerheim      5          0.215               4         0 0.05356
St. Pankraz                                               St. Pankraz      5          0.859               4         0 0.05356
Algund                                                         Algund      5          1.718               3         0 0.05356
Laas, St. Sisinius                                 Laas, St. Sisinius      5          1.503               3         0 0.05356
Meran, Martinsbrunn                               Meran, Martinsbrunn      8          4.080               3         0 0.05605
Villanders, Josefsheim                         Villanders, Josefsheim      5          2.147               2         0 0.06693
INSIEME                                                  INSIEME (18)    184         40.372             143       133 0.39745

Eine Traueranzeige zu viel und schon ist Laas (St. Sisinius) in die "weniger suspekten" hinein gekommen.
Von denen, 0 bis 1  "Fehlalarme" oder nur "vorgezogene" Sterbefälle sind.

Hinzugekommen sind heute somit 3 Traueranzeigen: 
            Ritten: +1
 Meran, Villa Eden: +1
Laas, St. Sisinius: +1
             



