dal 2020-10-23 a 2021-07-18 12:44  Welle2 attesoSemplice eccessoSemplice eccesso95   proba
Bolzano, Don Bosco                     35           10.3              24        19 0.00000
Ritten                                 23           10.3              12         7 0.00045
Schluderns                             19            6.9              12         6 0.00069
Mals, Martinsheim                      25           12.0              12         7 0.00071
Meran, Villa Eden                      21            9.4              11         6 0.00080
Sterzing, Bezirksaltenheim Wipptal     20           10.3               9         4 0.00477

Tisens, St. Josef                      15            4.3              10         2 0.01794
Niederdorf, Von-Kurz                   17            9.4               7         2 0.01693
Lana, Lorenzerhof                      19           12.0               6         1 0.03808

Partschins                             13            4.3               8         0 0.06574
Klausen, Haus Eiseck                   13            6.0               6         0 0.06574
INSIEME (11)                          220           95.3             124       108 0.21186


0 bis 1 sind "Fehlalarme"

